{
    "openapi": "3.0.0",
    "info": {
        "title": "Your super  ApplicationAPI",
        "version": "1.0.0"
    },
    "paths": {
        "/login": {
            "post": {
                "tags": [
                    "auth"
                ],
                "summary": "Sign in",
                "description": "Login by email, password",
                "operationId": "authLogin",
                "requestBody": {
                    "description": "Pass user credentials",
                    "required": true,
                    "content": {
                        "application/json": {
                            "schema": {
                                "required": [
                                    "email",
                                    "password"
                                ],
                                "properties": {
                                    "email": {
                                        "type": "string",
                                        "format": "email",
                                        "example": "user1@mail.com"
                                    },
                                    "password": {
                                        "type": "string",
                                        "format": "password",
                                        "example": "PassWord12345"
                                    },
                                    "persistent": {
                                        "type": "boolean",
                                        "example": "true"
                                    }
                                },
                                "type": "object"
                            }
                        }
                    }
                },
                "responses": {
                    "200": {
                        "description": "Success"
                    },
                    "422": {
                        "description": "Wrong credentials response",
                        "content": {
                            "application/json": {
                                "schema": {
                                    "properties": {
                                        "message": {
                                            "type": "string",
                                            "example": "Sorry, wrong email address or password. Please try again"
                                        },
                                        "email": {
                                            "type": "string",
                                            "format": "email",
                                            "example": "user1@mail.com"
                                        }
                                    },
                                    "type": "object"
                                }
                            }
                        }
                    }
                }
            }
        }
    },
    "security": [
        []
    ]
}